<svg width="14" height="14" viewBox="0 0 14 14" fill="none" stroke="black" xmlns="http://www.w3.org/2000/svg">
    <path d="M1.31242 12.6875L12.6875 1.31242M1.31242 1.31242L12.6875 12.6875L1.31242 1.31242Z" stroke="inherit"
          stroke-width="2" stroke-linecap="round" stroke-linejoin="round"/>
</svg>